EESchema Schematic File Version 4
LIBS:wise_farm_nb_iot_1-cache
EELAYER 30 0
EELAYER END
$Descr A4 11693 8268
encoding utf-8
Sheet 5 5
Title ""
Date ""
Rev ""
Comp ""
Comment1 ""
Comment2 ""
Comment3 ""
Comment4 ""
$EndDescr
$Sheet
S 3750 3000 800  1300
U 6083E0AA
F0 "sheet6083E09C" 50
F1 "radio/BC92.sch" 50
F2 "VCC_R" I L 3750 3100 50 
F3 "GND_R" I L 3750 4200 50 
F4 "PWRKEY_R" I L 3750 3350 50 
F5 "RESET_R" I L 3750 3450 50 
F6 "TXD_R" O L 3750 3600 50 
F7 "RXD_R" I L 3750 3700 50 
F8 "BJT_CTRL_R" I L 3750 3850 50 
F9 "UCR_R" O L 3750 3950 50 
F10 "PSM_EINT_R" I L 3750 4050 50 
F11 "VCC_BATT_R" I L 3750 3200 50 
$EndSheet
$Sheet
S 7350 3000 800  1300
U 6083E0B5
F0 "sheet6083E09D" 50
F1 "radio/NE310H2.sch" 50
F2 "VCC_R" I L 7350 3100 50 
F3 "GND_R" I L 7350 4200 50 
F4 "RESET_R" I L 7350 3450 50 
F5 "TXD_R" O L 7350 3600 50 
F6 "RXD_R" I L 7350 3700 50 
F7 "BJT_CTRL_R" I L 7350 3850 50 
F8 "ON_OFF" I L 7350 3350 50 
F9 "WAKE" O L 7350 3950 50 
F10 "VCC_BATT_R" I L 7350 3200 50 
$EndSheet
Wire Wire Line
	3750 3200 3600 3200
Wire Wire Line
	7350 3200 7200 3200
Text Label 3600 3200 2    60   ~ 0
VCC_BATT
Text Label 7200 3200 2    60   ~ 0
VCC_BATT
Wire Wire Line
	3750 4050 3600 4050
Text Label 3600 4050 2    50   ~ 0
PSM_ENABLEn
Text Label 3600 4200 2    50   ~ 0
GND
Wire Wire Line
	3600 4200 3750 4200
Text Label 7200 4200 2    50   ~ 0
GND
Wire Wire Line
	7200 4200 7350 4200
Wire Wire Line
	3750 3100 3600 3100
Wire Wire Line
	7350 3100 7200 3100
Text Label 3600 3100 2    60   ~ 0
VCC_R
Text Label 7200 3100 2    60   ~ 0
VCC_R
$Sheet
S 5500 3050 800  1300
U 6083E0CF
F0 "sheet6083E09E" 50
F1 "radio/BC95.sch" 50
F2 "VCC_R" I L 5500 3150 50 
F3 "GND_R" I L 5500 4250 50 
F4 "PWRKEY_R" I L 5500 3400 50 
F5 "RESET_R" I L 5500 3500 50 
F6 "TXD_R" O L 5500 3650 50 
F7 "RXD_R" I L 5500 3750 50 
F8 "BJT_CTRL_R" I L 5500 3900 50 
F9 "UCR_R" O L 5500 4000 50 
F10 "PSM_EINT_R" I L 5500 4100 50 
F11 "VCC_BATT_R" I L 5500 3250 50 
$EndSheet
Wire Wire Line
	5500 3250 5350 3250
Text Label 5350 3250 2    60   ~ 0
VCC_BATT
Wire Wire Line
	5500 4100 5350 4100
Text Label 5350 4100 2    50   ~ 0
PSM_ENABLEn
Text Label 5350 4250 2    50   ~ 0
GND
Wire Wire Line
	5350 4250 5500 4250
Wire Wire Line
	5500 3150 5350 3150
Text Label 5350 3150 2    60   ~ 0
VCC_R
$EndSCHEMATC
